info face="SmallNumberFont" size=21 bold=1 italic=0 charset="" unicode=1 stretchH=0 smooth=1 aa=1 padding=0,0,0,0 spacing=0,0 outline=0
common lineHeight=21 base=0 scaleW=160 scaleH=21 pages=1 packed=0 alphaChnl=1 redChnl=0 greenChnl=0 blueChnl=0
page id=0 file="SmallNumberFont.png"
chars count=10
char id=48   x=0     y=0     width=15    height=21    xoffset=0     yoffset=0    xadvance=12    page=0  chnl=15
char id=49   x=16    y=0     width=11    height=21    xoffset=0     yoffset=0    xadvance=8    page=0  chnl=15
char id=50   x=28    y=0     width=14    height=21    xoffset=0     yoffset=0    xadvance=10    page=0  chnl=15
char id=51   x=44    y=0     width=14    height=21    xoffset=0     yoffset=0    xadvance=11    page=0  chnl=15
char id=52   x=59    y=0     width=16    height=21    xoffset=0     yoffset=0    xadvance=13    page=0  chnl=15
char id=53   x=76    y=0     width=14    height=21    xoffset=0     yoffset=0    xadvance=11    page=0  chnl=15
char id=54   x=91    y=0     width=15    height=21    xoffset=0     yoffset=0    xadvance=12    page=0  chnl=15
char id=55   x=107   y=0     width=14    height=21    xoffset=0     yoffset=0    xadvance=11    page=0  chnl=15
char id=56   x=122   y=0     width=15    height=21    xoffset=0     yoffset=0    xadvance=12    page=0  chnl=15
char id=57   x=138   y=0     width=14    height=21    xoffset=0     yoffset=0    xadvance=11    page=0  chnl=15
char id=44   x=153   y=0     width=7     height=21    xoffset=0     yoffset=0    xadvance=4     page=0  chnl=15