info face="EatSmallNumberFont" size=50 bold=1 italic=0 charset="" unicode=1 stretchH=0 smooth=1 aa=1 padding=0,0,0,0 spacing=0,0 outline=0
common lineHeight=21 base=0 scaleW=504 scaleH=50 pages=1 packed=0 alphaChnl=1 redChnl=0 greenChnl=0 blueChnl=0
page id=0 file="EatSmallNumberFont.png"
chars count=12
char id=48   x=0     y=0     width=40    height=50    xoffset=0     yoffset=0    xadvance=39    page=0  chnl=15
char id=49   x=50    y=0     width=24    height=50    xoffset=0     yoffset=0    xadvance=23    page=0  chnl=15
char id=50   x=86    y=0     width=36    height=50    xoffset=0     yoffset=0    xadvance=35    page=0  chnl=15
char id=51   x=129    y=0     width=35    height=50    xoffset=0     yoffset=0    xadvance=34    page=0  chnl=15
char id=52   x=169    y=0     width=38    height=50    xoffset=0     yoffset=0    xadvance=37    page=0  chnl=15
char id=53   x=212    y=0     width=35    height=50    xoffset=0     yoffset=0    xadvance=34    page=0  chnl=15
char id=54   x=254    y=0     width=37    height=50    xoffset=0     yoffset=0    xadvance=36    page=0  chnl=15
char id=55   x=297   y=0     width=34    height=50    xoffset=0     yoffset=0    xadvance=33    page=0  chnl=15
char id=56   x=339   y=0     width=35    height=50    xoffset=0     yoffset=0    xadvance=34    page=0  chnl=15
char id=57   x=380   y=0     width=37    height=50    xoffset=0     yoffset=0    xadvance=36    page=0  chnl=15
char id=43   x=420   y=0     width=39    height=50    xoffset=0     yoffset=0    xadvance=38    page=0  chnl=15
char id=44   x=476   y=0     width=13     height=50    xoffset=1     yoffset=0    xadvance=13     page=0  chnl=15